{
    "elements": [
        {
            "x": 8,
            "y": 321,
            "width": 19,
            "height": 561,
            "rotation": 0,
            "elementType": "right1"
        },
        {
            "x": 480.88727,
            "y": 156.39653,
            "width": 187,
            "height": 29,
            "rotation": 75,
            "elementType": "platform7"
        },
        {
            "x": 845,
            "y": 321,
            "width": 19,
            "height": 561,
            "rotation": 0,
            "elementType": "left1"
        },
        {
            "x": 369.9649,
            "y": 203.7535,
            "width": 184,
            "height": 30,
            "rotation": 75,
            "elementType": "platform7"
        },
        {
            "x": 427.36597,
            "y": 482.4107,
            "width": 187,
            "height": 29,
            "rotation": 75,
            "elementType": "platform7"
        },
        {
            "x": 427,
            "y": 70,
            "width": 854,
            "height": 160,
            "rotation": 0,
            "elementType": "bottom1"
        },
        {
            "x": 427,
            "y": 602,
            "width": 854,
            "height": 111,
            "rotation": 0,
            "elementType": "upper1"
        },
        {
            "x": 60.819824,
            "y": 180.60902,
            "width": 41,
            "height": 62,
            "rotation": 4,
            "elementType": "hero"
        },
        {
            "x": 772.2694,
            "y": 176.06514,
            "width": 10,
            "height": 9,
            "rotation": -5,
            "elementType": "enemy"
        },
        {
            "x": 534.74365,
            "y": 432.72235,
            "width": 184,
            "height": 30,
            "rotation": 75,
            "elementType": "platform7"
        },
        {
            "x": 645.66614,
            "y": 385.3654,
            "width": 187,
            "height": 29,
            "rotation": 75,
            "elementType": "platform7"
        },
        {
            "x": 262.58722,
            "y": 253.44183,
            "width": 187,
            "height": 29,
            "rotation": 75,
            "elementType": "platform7"
        },
        {
            "x": 813.6823,
            "y": 174.22946,
            "width": 10,
            "height": 9,
            "rotation": -5,
            "elementType": "enemy"
        },
        {
            "x": 422.57675,
            "y": 177.12459,
            "width": 9,
            "height": 49,
            "rotation": -5,
            "elementType": "enemy"
        },
        {
            "x": 300.81995,
            "y": 174.88094,
            "width": 9,
            "height": 49,
            "rotation": -5,
            "elementType": "enemy"
        },
        {
            "x": 1133.7222,
            "y": 143.75458,
            "width": 17,
            "height": 20,
            "rotation": 0,
            "elementType": "gunshell"
        },
        {
            "x": 1144.7324,
            "y": 255.79996,
            "width": 17,
            "height": 21,
            "rotation": 0,
            "elementType": "gunshell"
        },
        {
            "x": 1196.1526,
            "y": 129.613,
            "width": 17,
            "height": 22,
            "rotation": 1,
            "elementType": "gunshell1"
        },
        {
            "x": 1196.1526,
            "y": 129.613,
            "width": 17,
            "height": 22,
            "rotation": 1,
            "elementType": "gunshell"
        }
    ]
}