{
    "elements": [
        {
            "x": 310.29288,
            "y": 559.5893,
            "width": 147,
            "height": 46,
            "rotation": 0,
            "elementType": "platform11"
        },
        {
            "x": 472.63547,
            "y": 193.22946,
            "width": 85,
            "height": 382,
            "rotation": 18,
            "elementType": "stand0"
        },
        {
            "x": 450.02942,
            "y": 221.92072,
            "width": 114,
            "height": 382,
            "rotation": -20,
            "elementType": "stand1"
        },
        {
            "x": 839.95624,
            "y": 365.4136,
            "width": 36,
            "height": 198,
            "rotation": 0,
            "elementType": "platform12"
        },
        {
            "x": 460.68814,
            "y": 240.94116,
            "width": 41,
            "height": 62,
            "rotation": 3,
            "elementType": "hero"
        },
        {
            "x": 179.10684,
            "y": 175.04532,
            "width": 10,
            "height": 5,
            "rotation": -6,
            "elementType": "enemy"
        },
        {
            "x": 406.10547,
            "y": 270.32874,
            "width": 36,
            "height": 198,
            "rotation": 0,
            "elementType": "platform12"
        },
        {
            "x": 427,
            "y": 70,
            "width": 854,
            "height": 160,
            "rotation": 0,
            "elementType": "bottom3"
        },
        {
            "x": 458.8141,
            "y": 186.70264,
            "width": 150,
            "height": 46,
            "rotation": 0,
            "elementType": "platform11"
        },
        {
            "x": 48.631042,
            "y": 398.66028,
            "width": 103,
            "height": 46,
            "rotation": 0,
            "elementType": "platform11"
        },
        {
            "x": 48.396667,
            "y": 441.28912,
            "width": 9,
            "height": 49,
            "rotation": 6,
            "elementType": "enemy"
        },
        {
            "x": 308.88727,
            "y": 527.2267,
            "width": 9,
            "height": 23,
            "rotation": 0,
            "elementType": "rope"
        },
        {
            "x": 306.8,
            "y": 378.19998,
            "width": 96,
            "height": 96,
            "rotation": 0,
            "elementType": "jointtyre1"
        },
        {
            "x": 305.49054,
            "y": 182.1161,
            "width": 10,
            "height": 5,
            "rotation": -6,
            "elementType": "enemy"
        },
        {
            "x": 406.22983,
            "y": 386.49026,
            "width": 9,
            "height": 49,
            "rotation": 6,
            "elementType": "enemy"
        },
        {
            "x": 945.90356,
            "y": 89.56761,
            "width": 17,
            "height": 20,
            "rotation": 0,
            "elementType": "gunshell"
        },
        {
            "x": 956.9138,
            "y": 201.61299,
            "width": 17,
            "height": 21,
            "rotation": 0,
            "elementType": "gunshell"
        },
        {
            "x": 1008.334,
            "y": 75.42604,
            "width": 17,
            "height": 22,
            "rotation": 0,
            "elementType": "gunshell"
        }
    ]
}