info face="LithosPro-Black" size=35 bold=1 italic=0 charset="" unicode=0 stretchH=100 smooth=1 aa=1 padding=0,0,0,0 spacing=0,0
common lineHeight=35 base=28 scaleW=256 scaleH=256 pages=1 packed=0
page id=0 file="score.png"
chars count=95
char id=32   x=0     y=0     width=0     height=0     xoffset=0     yoffset=28    xadvance=9     page=0  chnl=0 
char id=124   x=0     y=0     width=7     height=37     xoffset=4     yoffset=1    xadvance=13     page=0  chnl=0 
char id=93   x=7     y=0     width=12     height=34     xoffset=0     yoffset=0    xadvance=13     page=0  chnl=0 
char id=36   x=19     y=0     width=18     height=33     xoffset=6     yoffset=0    xadvance=28     page=0  chnl=0 
char id=125   x=37     y=0     width=14     height=32     xoffset=1     yoffset=1    xadvance=14     page=0  chnl=0 
char id=91   x=51     y=0     width=12     height=32     xoffset=2     yoffset=1    xadvance=13     page=0  chnl=0 
char id=41   x=63     y=0     width=13     height=32     xoffset=1     yoffset=1    xadvance=13     page=0  chnl=0 
char id=40   x=76     y=0     width=12     height=32     xoffset=1     yoffset=1    xadvance=13     page=0  chnl=0 
char id=123   x=88     y=0     width=13     height=31     xoffset=1     yoffset=1    xadvance=14     page=0  chnl=0 
char id=81   x=101     y=0     width=32     height=31     xoffset=1     yoffset=2    xadvance=31     page=0  chnl=0 
char id=74   x=133     y=0     width=15     height=31     xoffset=0     yoffset=2    xadvance=17     page=0  chnl=0 
char id=88   x=148     y=0     width=27     height=30     xoffset=1     yoffset=1    xadvance=28     page=0  chnl=0 
char id=86   x=175     y=0     width=30     height=29     xoffset=0     yoffset=2    xadvance=28     page=0  chnl=0 
char id=82   x=205     y=0     width=25     height=29     xoffset=3     yoffset=2    xadvance=27     page=0  chnl=0 
char id=77   x=0     y=37     width=38     height=29     xoffset=1     yoffset=2    xadvance=38     page=0  chnl=0 
char id=65   x=38     y=37     width=31     height=29     xoffset=0     yoffset=1    xadvance=30     page=0  chnl=0 
char id=55   x=69     y=37     width=21     height=28     xoffset=5     yoffset=2    xadvance=29     page=0  chnl=0 
char id=54   x=90     y=37     width=22     height=28     xoffset=4     yoffset=1    xadvance=29     page=0  chnl=0 
char id=51   x=112     y=37     width=20     height=28     xoffset=5     yoffset=2    xadvance=28     page=0  chnl=0 
char id=87   x=132     y=37     width=39     height=28     xoffset=0     yoffset=2    xadvance=37     page=0  chnl=0 
char id=127   x=171     y=37     width=20     height=27     xoffset=0     yoffset=2    xadvance=18     page=0  chnl=0 
char id=37   x=191     y=37     width=35     height=27     xoffset=1     yoffset=2    xadvance=36     page=0  chnl=0 
char id=92   x=226     y=37     width=19     height=27     xoffset=0     yoffset=2    xadvance=18     page=0  chnl=0 
char id=47   x=0     y=66     width=19     height=27     xoffset=0     yoffset=2    xadvance=18     page=0  chnl=0 
char id=33   x=19     y=66     width=10     height=27     xoffset=1     yoffset=2    xadvance=11     page=0  chnl=0 
char id=57   x=29     y=66     width=22     height=27     xoffset=4     yoffset=3    xadvance=28     page=0  chnl=0 
char id=56   x=51     y=66     width=23     height=27     xoffset=4     yoffset=2    xadvance=29     page=0  chnl=0 
char id=52   x=74     y=66     width=25     height=27     xoffset=1     yoffset=2    xadvance=28     page=0  chnl=0 
char id=49   x=99     y=66     width=16     height=27     xoffset=6     yoffset=2    xadvance=29     page=0  chnl=0 
char id=106   x=115     y=66     width=15     height=27     xoffset=-1     yoffset=6    xadvance=15     page=0  chnl=0 
char id=85   x=130     y=66     width=26     height=27     xoffset=3     yoffset=2    xadvance=30     page=0  chnl=0 
char id=80   x=156     y=66     width=23     height=27     xoffset=3     yoffset=2    xadvance=25     page=0  chnl=0 
char id=79   x=179     y=66     width=31     height=27     xoffset=1     yoffset=2    xadvance=31     page=0  chnl=0 
char id=78   x=210     y=66     width=27     height=27     xoffset=3     yoffset=2    xadvance=32     page=0  chnl=0 
char id=76   x=237     y=66     width=18     height=27     xoffset=3     yoffset=2    xadvance=21     page=0  chnl=0 
char id=75   x=0     y=93     width=26     height=27     xoffset=3     yoffset=2    xadvance=28     page=0  chnl=0 
char id=73   x=26     y=93     width=11     height=27     xoffset=3     yoffset=2    xadvance=16     page=0  chnl=0 
char id=72   x=37     y=93     width=28     height=27     xoffset=3     yoffset=2    xadvance=33     page=0  chnl=0 
char id=70   x=65     y=93     width=18     height=27     xoffset=3     yoffset=2    xadvance=22     page=0  chnl=0 
char id=68   x=83     y=93     width=27     height=27     xoffset=3     yoffset=2    xadvance=29     page=0  chnl=0 
char id=66   x=110     y=93     width=23     height=27     xoffset=3     yoffset=2    xadvance=26     page=0  chnl=0 
char id=38   x=133     y=93     width=27     height=26     xoffset=1     yoffset=3    xadvance=26     page=0  chnl=0 
char id=64   x=160     y=93     width=25     height=26     xoffset=2     yoffset=3    xadvance=27     page=0  chnl=0 
char id=63   x=185     y=93     width=17     height=26     xoffset=1     yoffset=3    xadvance=19     page=0  chnl=0 
char id=48   x=202     y=93     width=29     height=26     xoffset=1     yoffset=3    xadvance=29     page=0  chnl=0 
char id=53   x=231     y=93     width=20     height=26     xoffset=4     yoffset=3    xadvance=28     page=0  chnl=0 
char id=50   x=0     y=120     width=22     height=26     xoffset=2     yoffset=3    xadvance=28     page=0  chnl=0 
char id=113   x=22     y=120     width=29     height=26     xoffset=1     yoffset=6    xadvance=28     page=0  chnl=0 
char id=90   x=51     y=120     width=24     height=26     xoffset=1     yoffset=3    xadvance=25     page=0  chnl=0 
char id=89   x=75     y=120     width=28     height=26     xoffset=0     yoffset=3    xadvance=27     page=0  chnl=0 
char id=84   x=103     y=120     width=25     height=26     xoffset=0     yoffset=3    xadvance=24     page=0  chnl=0 
char id=83   x=128     y=120     width=19     height=26     xoffset=1     yoffset=3    xadvance=19     page=0  chnl=0 
char id=71   x=147     y=120     width=24     height=26     xoffset=1     yoffset=3    xadvance=26     page=0  chnl=0 
char id=69   x=171     y=120     width=18     height=26     xoffset=3     yoffset=3    xadvance=22     page=0  chnl=0 
char id=67   x=189     y=120     width=22     height=26     xoffset=1     yoffset=3    xadvance=23     page=0  chnl=0 
char id=120   x=211     y=120     width=25     height=25     xoffset=1     yoffset=6    xadvance=26     page=0  chnl=0 
char id=118   x=0     y=146     width=27     height=25     xoffset=0     yoffset=7    xadvance=26     page=0  chnl=0 
char id=97   x=27     y=146     width=28     height=25     xoffset=0     yoffset=6    xadvance=27     page=0  chnl=0 
char id=35   x=55     y=146     width=22     height=24     xoffset=2     yoffset=5    xadvance=24     page=0  chnl=0 
char id=59   x=77     y=146     width=10     height=24     xoffset=0     yoffset=10    xadvance=11     page=0  chnl=0 
char id=119   x=87     y=146     width=36     height=24     xoffset=0     yoffset=6    xadvance=33     page=0  chnl=0 
char id=114   x=123     y=146     width=24     height=24     xoffset=3     yoffset=6    xadvance=25     page=0  chnl=0 
char id=122   x=147     y=146     width=22     height=23     xoffset=1     yoffset=6    xadvance=23     page=0  chnl=0 
char id=121   x=169     y=146     width=26     height=23     xoffset=0     yoffset=6    xadvance=25     page=0  chnl=0 
char id=117   x=195     y=146     width=25     height=23     xoffset=2     yoffset=6    xadvance=27     page=0  chnl=0 
char id=112   x=220     y=146     width=23     height=23     xoffset=2     yoffset=6    xadvance=24     page=0  chnl=0 
char id=111   x=0     y=171     width=28     height=23     xoffset=1     yoffset=6    xadvance=28     page=0  chnl=0 
char id=110   x=28     y=171     width=25     height=23     xoffset=2     yoffset=6    xadvance=28     page=0  chnl=0 
char id=109   x=53     y=171     width=35     height=23     xoffset=0     yoffset=6    xadvance=34     page=0  chnl=0 
char id=108   x=88     y=171     width=18     height=23     xoffset=2     yoffset=6    xadvance=19     page=0  chnl=0 
char id=107   x=106     y=171     width=24     height=23     xoffset=2     yoffset=6    xadvance=26     page=0  chnl=0 
char id=105   x=130     y=171     width=10     height=23     xoffset=3     yoffset=6    xadvance=14     page=0  chnl=0 
char id=104   x=140     y=171     width=25     height=23     xoffset=3     yoffset=6    xadvance=29     page=0  chnl=0 
char id=102   x=165     y=171     width=17     height=23     xoffset=3     yoffset=6    xadvance=20     page=0  chnl=0 
char id=101   x=182     y=171     width=17     height=23     xoffset=2     yoffset=6    xadvance=19     page=0  chnl=0 
char id=100   x=199     y=171     width=24     height=23     xoffset=3     yoffset=6    xadvance=26     page=0  chnl=0 
char id=98   x=223     y=171     width=22     height=23     xoffset=2     yoffset=6    xadvance=23     page=0  chnl=0 
char id=116   x=0     y=194     width=23     height=22     xoffset=0     yoffset=7    xadvance=22     page=0  chnl=0 
char id=115   x=23     y=194     width=17     height=22     xoffset=1     yoffset=7    xadvance=18     page=0  chnl=0 
char id=103   x=40     y=194     width=23     height=22     xoffset=1     yoffset=7    xadvance=24     page=0  chnl=0 
char id=99   x=63     y=194     width=20     height=22     xoffset=1     yoffset=7    xadvance=20     page=0  chnl=0 
char id=62   x=83     y=194     width=20     height=21     xoffset=1     yoffset=8    xadvance=21     page=0  chnl=0 
char id=60   x=103     y=194     width=18     height=21     xoffset=2     yoffset=8    xadvance=21     page=0  chnl=0 
char id=43   x=121     y=194     width=19     height=20     xoffset=1     yoffset=9    xadvance=20     page=0  chnl=0 
char id=94   x=140     y=194     width=20     height=19     xoffset=1     yoffset=4    xadvance=21     page=0  chnl=0 
char id=58   x=160     y=194     width=8     height=19     xoffset=2     yoffset=10    xadvance=11     page=0  chnl=0 
char id=61   x=168     y=194     width=20     height=14     xoffset=1     yoffset=12    xadvance=20     page=0  chnl=0 
char id=42   x=188     y=194     width=13     height=12     xoffset=1     yoffset=2    xadvance=13     page=0  chnl=0 
char id=44   x=201     y=194     width=8     height=11     xoffset=2     yoffset=22    xadvance=11     page=0  chnl=0 
char id=126   x=209     y=194     width=21     height=10     xoffset=1     yoffset=13    xadvance=21     page=0  chnl=0 
char id=39   x=230     y=194     width=6     height=10     xoffset=2     yoffset=2    xadvance=9     page=0  chnl=0 
char id=34   x=236     y=194     width=12     height=10     xoffset=1     yoffset=2    xadvance=13     page=0  chnl=0 
char id=45   x=0     y=216     width=15     height=8     xoffset=0     yoffset=12    xadvance=14     page=0  chnl=0 
char id=96   x=15     y=216     width=9     height=8     xoffset=10     yoffset=-6    xadvance=31     page=0  chnl=0 
char id=46   x=24     y=216     width=8     height=7     xoffset=2     yoffset=22    xadvance=11     page=0  chnl=0 
char id=95   x=32     y=216     width=20     height=4     xoffset=0     yoffset=29    xadvance=18     page=0  chnl=0 
